^E:\ISEC\SO2\GIT\SERVER\INSTALLSERVER\DEBUG\INSTALLSERVER.OBJ
E:\ISEC\SO2\GIT\SERVER\DEBUG\INSTALLSERVER.ILK
E:\ISEC\SO2\GIT\SERVER\DEBUG\INSTALLSERVER.EXE
E:\ISEC\SO2\GIT\SERVER\DEBUG\INSTALLSERVER.PDB
